<?xml version="1.0" encoding="UTF-8" standalone="no"?>
<svg
   xmlns:dc="http://purl.org/dc/elements/1.1/"
   xmlns:cc="http://creativecommons.org/ns#"
   xmlns:rdf="http://www.w3.org/1999/02/22-rdf-syntax-ns#"
   xmlns:svg="http://www.w3.org/2000/svg"
   xmlns="http://www.w3.org/2000/svg"
   xmlns:sodipodi="http://sodipodi.sourceforge.net/DTD/sodipodi-0.dtd"
   xmlns:inkscape="http://www.inkscape.org/namespaces/inkscape"
   version="1.0"
   width="300"
   viewBox="0 0 400 360"
   id="svg1298"
   sodipodi:docname="drivers_3.svg"
   inkscape:version="0.92.2 (5c3e80d, 2017-08-06)">
  <metadata
     id="metadata1302">
    <rdf:RDF>
      <cc:Work
         rdf:about="">
        <dc:format>image/svg+xml</dc:format>
        <dc:type
           rdf:resource="http://purl.org/dc/dcmitype/StillImage" />
        <dc:title></dc:title>
      </cc:Work>
    </rdf:RDF>
  </metadata>
  <sodipodi:namedview
     pagecolor="#ffffff"
     bordercolor="#666666"
     borderopacity="1"
     objecttolerance="10"
     gridtolerance="10"
     guidetolerance="10"
     inkscape:pageopacity="0"
     inkscape:pageshadow="2"
     inkscape:window-width="1680"
     inkscape:window-height="1028"
     id="namedview1300"
     showgrid="false"
     fit-margin-top="0"
     fit-margin-left="0"
     fit-margin-right="0"
     fit-margin-bottom="0"
     inkscape:zoom="0.65950218"
     inkscape:cx="206.29685"
     inkscape:cy="188.25182"
     inkscape:window-x="-8"
     inkscape:window-y="-8"
     inkscape:window-maximized="1"
     inkscape:current-layer="svg1298" />
  <defs
     id="defs1186">
    <pattern
       id="EMFhbasepattern"
       patternUnits="userSpaceOnUse"
       width="6"
       height="6"
       x="0"
       y="0" />
  </defs>
  <path
     style="fill:none;stroke:#4472c4;stroke-width:2.67471623px;stroke-linecap:butt;stroke-linejoin:miter;stroke-miterlimit:8;stroke-dasharray:none;stroke-opacity:1"
     d="M 33.567839,178.22792 106.18439,1.3373581 H 324.07396 L 396.6905,178.22792 324.07396,355.11848 H 106.18439 Z"
     id="path1188"
     inkscape:connector-curvature="0" />
  <text
     xml:space="preserve"
     style="font-style:normal;font-variant:normal;font-weight:400;font-size:23.9375px;line-height:125%;font-family:Calibri;text-align:start;letter-spacing:0px;word-spacing:0px;text-anchor:start;fill:#000000;fill-opacity:1;stroke:none"
     x="-1.1220703"
     y="40.329823"
     id="text1194"><tspan
       sodipodi:role="line"
       x="-1.1220703"
       y="40.329823"
       id="tspan1192"><tspan
         dx="0"
         dy="0"
         style="font-style:normal;font-variant:normal;font-weight:400;font-size:23.9375px;font-family:Calibri;fill:#4472c4"
         id="tspan1190">drivers</tspan></tspan></text>
  <path
     style="fill:none;stroke:#4472c4;stroke-width:2.67471623px;stroke-linecap:butt;stroke-linejoin:miter;stroke-miterlimit:8;stroke-dasharray:none;stroke-opacity:1"
     d="M 89.976407,202.10076 144.78813,73.035721 H 309.26321 L 364.07493,202.10076 309.26321,331.1658 H 144.78813 Z"
     id="path1196"
     inkscape:connector-curvature="0" />
  <text
     xml:space="preserve"
     style="font-style:normal;font-variant:normal;font-weight:400;font-size:23.9375px;line-height:125%;font-family:Calibri;text-align:start;letter-spacing:0px;word-spacing:0px;text-anchor:start;fill:#000000;fill-opacity:1;stroke:none"
     x="113.89065"
     y="32.481926"
     id="text1202"><tspan
       sodipodi:role="line"
       x="113.89065"
       y="32.481926"
       id="tspan1200"><tspan
         dx="0"
         dy="0"
         style="font-style:normal;font-variant:normal;font-weight:400;font-size:23.9375px;font-family:Calibri;fill:#4472c4"
         id="tspan1198">solve</tspan></tspan></text>
  <text
     xml:space="preserve"
     style="font-style:italic;font-variant:normal;font-weight:400;font-size:18.6875px;line-height:125%;font-family:Calibri;text-align:start;letter-spacing:0px;word-spacing:0px;text-anchor:start;fill:#000000;fill-opacity:1;stroke:none"
     x="113.89065"
     y="56.274925"
     id="text1208"><tspan
       sodipodi:role="line"
       x="113.89065"
       y="56.274925"
       id="tspan1206"><tspan
         dx="0"
         dy="0"
         style="font-style:italic;font-variant:normal;font-weight:400;font-size:18.6875px;font-family:Calibri;fill:#4472c4"
         id="tspan1204">class: NonLinearSolver</tspan></tspan></text>
  <text
     xml:space="preserve"
     style="font-style:normal;font-variant:normal;font-weight:400;font-size:18.6875px;line-height:125%;font-family:Calibri;text-align:start;letter-spacing:0px;word-spacing:0px;text-anchor:start;fill:#000000;fill-opacity:1;stroke:none"
     x="148.17706"
     y="101.46503"
     id="text1240"><tspan
       sodipodi:role="line"
       x="148.17706"
       y="101.46503"
       id="tspan1238"><tspan
         dx="0"
         dy="0"
         style="font-style:normal;font-variant:normal;font-weight:400;font-size:18.6875px;font-family:Calibri;fill:#4472c4"
         id="tspan1236">default_case...</tspan></tspan></text>
  <text
     xml:space="preserve"
     style="font-style:italic;font-variant:normal;font-weight:400;font-size:14.6875px;line-height:125%;font-family:Calibri;text-align:start;letter-spacing:0px;word-spacing:0px;text-anchor:start;fill:#000000;fill-opacity:1;stroke:none"
     x="148.17706"
     y="120.14812"
     id="text1252"><tspan
       sodipodi:role="line"
       x="148.17706"
       y="120.14812"
       id="tspan1250"><tspan
         dx="0"
         dy="0"
         style="font-style:italic;font-variant:normal;font-weight:400;font-size:14.6875px;font-family:Calibri;fill:#4472c4"
         id="tspan1248">class: RunSingleCase</tspan></tspan></text>
  <path
     style="fill:none;stroke:#4472c4;stroke-width:2.67471623px;stroke-linecap:butt;stroke-linejoin:miter;stroke-miterlimit:8;stroke-dasharray:none;stroke-opacity:1"
     transform="translate(-545,-410)scale(2.8)" vector-effect="non-scaling-stroke"
     d="m 249.82064,230.56453 11.3376,-28.30408 h 34.05273 l 11.33761,28.30408 -11.33761,28.26417 h -34.05273 z"
     id="path1266"
     inkscape:connector-curvature="0" />
  <text
     xml:space="preserve"
     style="font-style:normal;font-variant:normal;font-weight:400;font-size:18.6875px;line-height:125%;font-family:Calibri;text-align:start;letter-spacing:0px;word-spacing:0px;text-anchor:start;fill:#000000;fill-opacity:1;stroke:none"
     x="190"
     y="180"
     id="text1278"><tspan
       sodipodi:role="line"
       x="190"
       y="180"
       id="tspan1276"><tspan
         dx="0"
         dy="0"
         style="font-style:normal;font-variant:normal;font-weight:400;font-size:18.6875px;font-family:Calibri;fill:#4472c4"
         id="tspan1274">run_once</tspan></tspan></text>
  <text
     xml:space="preserve"
     style="font-style:italic;font-variant:normal;font-weight:400;font-size:14.6875px;line-height:125%;font-family:Calibri;text-align:start;letter-spacing:0px;word-spacing:0px;text-anchor:start;fill:#000000;fill-opacity:1;stroke:none"
     x="190"
     y="200"
     id="text1290"><tspan
       sodipodi:role="line"
       x="190"
       y="200"
       id="tspan1288"><tspan
         dx="0"
         dy="0"
         style="font-style:italic;font-variant:normal;font-weight:400;font-size:14.6875px;font-family:Calibri;fill:#4472c4"
         id="tspan1286">class: RunOnce</tspan></tspan></text>
</svg>
