<?xml version="1.0" encoding="UTF-8" standalone="no"?>
<svg
   xmlns:dc="http://purl.org/dc/elements/1.1/"
   xmlns:cc="http://creativecommons.org/ns#"
   xmlns:rdf="http://www.w3.org/1999/02/22-rdf-syntax-ns#"
   xmlns:svg="http://www.w3.org/2000/svg"
   xmlns="http://www.w3.org/2000/svg"
   xmlns:sodipodi="http://sodipodi.sourceforge.net/DTD/sodipodi-0.dtd"
   xmlns:inkscape="http://www.inkscape.org/namespaces/inkscape"
   version="1.0"
   width="700"
   viewBox="0 0 740 265"
   id="svg633"
   sodipodi:docname="triggers_2.svg"
   inkscape:version="0.92.2 (5c3e80d, 2017-08-06)">
  <metadata
     id="metadata637">
    <rdf:RDF>
      <cc:Work
         rdf:about="">
        <dc:format>image/svg+xml</dc:format>
        <dc:type
           rdf:resource="http://purl.org/dc/dcmitype/StillImage" />
        <dc:title></dc:title>
      </cc:Work>
    </rdf:RDF>
  </metadata>
  <sodipodi:namedview
     pagecolor="#ffffff"
     bordercolor="#666666"
     borderopacity="1"
     objecttolerance="10"
     gridtolerance="10"
     guidetolerance="10"
     inkscape:pageopacity="0"
     inkscape:pageshadow="2"
     inkscape:window-width="1680"
     inkscape:window-height="1028"
     id="namedview635"
     showgrid="false"
     fit-margin-top="0"
     fit-margin-left="0"
     fit-margin-right="0"
     fit-margin-bottom="0"
     inkscape:zoom="1.3650953"
     inkscape:cx="407.51104"
     inkscape:cy="38.693915"
     inkscape:window-x="-8"
     inkscape:window-y="-8"
     inkscape:window-maximized="1"
     inkscape:current-layer="svg633" />
  <defs
     id="defs449">
    <pattern
       id="EMFhbasepattern"
       patternUnits="userSpaceOnUse"
       width="6"
       height="6"
       x="0"
       y="0" />
  </defs>
  <path
     style="fill:none;stroke:#7f7f7f;stroke-width:0.66867906px;stroke-linecap:butt;stroke-linejoin:miter;stroke-miterlimit:8;stroke-dasharray:none;stroke-opacity:1"
     d="M 72.749872,53.652408 V 204.54433"
     id="path451"
     inkscape:connector-curvature="0" />
  <path
     style="fill:none;stroke:#7f7f7f;stroke-width:0.67865932px;stroke-linecap:butt;stroke-linejoin:miter;stroke-miterlimit:8;stroke-dasharray:none;stroke-opacity:1"
     d="M 711.48807,53.652408 V 204.55431"
     id="path453"
     inkscape:connector-curvature="0" />
  <path
     style="fill:#7f7f7f;fill-opacity:1;fill-rule:nonzero;stroke:#7f7f7f;stroke-width:0.03992114px;stroke-linecap:butt;stroke-linejoin:round;stroke-miterlimit:10;stroke-dasharray:none;stroke-opacity:1"
     d="M 87.720299,198.88551 H 697.1963 v 1.3174 H 87.720299 Z m 1.357319,4.67077 -7.984228,-3.99211 7.984228,-3.99211 z m 606.801282,-7.98422 7.98423,3.99211 -7.98423,3.99211 z"
     id="path455"
     inkscape:connector-curvature="0" />
  <text
     xml:space="preserve"
     style="font-style:italic;font-variant:normal;font-weight:400;font-size:18.6875px;line-height:125%;font-family:Arial;text-align:start;letter-spacing:0px;word-spacing:0px;text-anchor:start;fill:#000000;fill-opacity:1;stroke:none"
     x="355.19205"
     y="225.03993"
     id="text461"><tspan
       sodipodi:role="line"
       x="355.19205"
       y="225.03993"
       id="tspan459"><tspan
         dx="0"
         dy="0"
         style="font-style:italic;font-variant:normal;font-weight:400;font-size:18.6875px;font-family:Arial;fill:#7f7f7f"
         id="tspan457">timeout</tspan></tspan></text>
  <text
     xml:space="preserve"
     style="font-style:normal;font-variant:normal;font-weight:400;font-size:23.9375px;line-height:125%;font-family:Arial;text-align:start;letter-spacing:0px;word-spacing:0px;text-anchor:start;fill:#000000;fill-opacity:1;stroke:none"
     x="16.58744"
     y="231.76166"
     id="text467"><tspan
       sodipodi:role="line"
       x="16.58744"
       y="231.76166"
       id="tspan465"><tspan
         dx="0"
         dy="0"
         style="font-style:normal;font-variant:normal;font-weight:400;font-size:23.9375px;font-family:Arial;fill:#7f7f7f"
         id="tspan463">Start or last </tspan></tspan></text>
  <text
     xml:space="preserve"
     style="font-style:normal;font-variant:normal;font-weight:400;font-size:23.9375px;line-height:125%;font-family:Arial;text-align:start;letter-spacing:0px;word-spacing:0px;text-anchor:start;fill:#000000;fill-opacity:1;stroke:none"
     x="-0.81817627"
     y="260.50488"
     id="text473"><tspan
       sodipodi:role="line"
       x="-0.81817627"
       y="260.50488"
       id="tspan471"><tspan
         dx="0"
         dy="0"
         style="font-style:normal;font-variant:normal;font-weight:400;font-size:23.9375px;font-family:Arial;fill:#7f7f7f"
         id="tspan469">detected</tspan></tspan></text>
  <text
     xml:space="preserve"
     style="font-style:normal;font-variant:normal;font-weight:400;font-size:23.9375px;line-height:125%;font-family:Arial;text-align:start;letter-spacing:0px;word-spacing:0px;text-anchor:start;fill:#000000;fill-opacity:1;stroke:none"
     x="91.319809"
     y="260.50488"
     id="text479"><tspan
       sodipodi:role="line"
       x="98.319809"
       y="260.50488"
       id="tspan477"><tspan
         dx="0"
         dy="0"
         style="font-style:normal;font-variant:normal;font-weight:400;font-size:23.9375px;font-family:Arial;fill:#7f7f7f"
         id="tspan475">event</tspan></tspan></text>
  <text
     xml:space="preserve"
     style="font-style:normal;font-variant:normal;font-weight:400;font-size:23.9375px;line-height:125%;font-family:Arial;text-align:start;letter-spacing:0px;word-spacing:0px;text-anchor:start;fill:#000000;fill-opacity:1;stroke:none"
     x="689.49481"
     y="230.49832"
     id="text485"><tspan
       sodipodi:role="line"
       x="689.49481"
       y="230.49832"
       id="tspan483"><tspan
         dx="0"
         dy="0"
         style="font-style:normal;font-variant:normal;font-weight:400;font-size:23.9375px;font-family:Arial;fill:#7f7f7f"
         id="tspan481">Stop</tspan></tspan></text>
  <text
     xml:space="preserve"
     style="font-style:italic;font-variant:normal;font-weight:400;font-size:18.6875px;line-height:125%;font-family:Arial;text-align:start;letter-spacing:0px;word-spacing:0px;text-anchor:start;fill:#000000;fill-opacity:1;stroke:none"
     x="214.55025"
     y="118.74283"
     id="text491"><tspan
       sodipodi:role="line"
       x="214.55025"
       y="118.74283"
       id="tspan489"><tspan
         dx="0"
         dy="0"
         style="font-style:italic;font-variant:normal;font-weight:400;font-size:18.6875px;font-family:Arial;fill:#7f7f7f"
         id="tspan487">r</tspan></tspan></text>
  <text
     xml:space="preserve"
     style="font-style:italic;font-variant:normal;font-weight:400;font-size:18.6875px;line-height:125%;font-family:Arial;text-align:start;letter-spacing:0px;word-spacing:0px;text-anchor:start;fill:#000000;fill-opacity:1;stroke:none"
     x="220.93764"
     y="118.74283"
     id="text497"><tspan
       sodipodi:role="line"
       x="220.93764"
       y="118.74283"
       id="tspan495"><tspan
         dx="0"
         dy="0"
         style="font-style:italic;font-variant:normal;font-weight:400;font-size:18.6875px;font-family:Arial;fill:#7f7f7f"
         id="tspan493">estart </tspan></tspan></text>
  <text
     xml:space="preserve"
     style="font-style:italic;font-variant:normal;font-weight:400;font-size:18.6875px;line-height:125%;font-family:Arial;text-align:start;letter-spacing:0px;word-spacing:0px;text-anchor:start;fill:#000000;fill-opacity:1;stroke:none"
     x="269.32205"
     y="118.74283"
     id="text503"><tspan
       sodipodi:role="line"
       x="271.32205"
       y="118.74283"
       id="tspan501"><tspan
         dx="0"
         dy="0"
         style="font-style:italic;font-variant:normal;font-weight:400;font-size:18.6875px;font-family:Arial;fill:#7f7f7f"
         id="tspan499">timer</tspan></tspan></text>
  <path
     style="fill:#7f7f7f;fill-opacity:1;fill-rule:nonzero;stroke:#7f7f7f;stroke-width:0.03992114px;stroke-linecap:butt;stroke-linejoin:round;stroke-miterlimit:4;stroke-dasharray:none;stroke-opacity:1"
     d="M 435.87253,74.810611 V 99.042746 H 87.081561 v -1.35732 H 435.23379 l -0.67865,0.67866 V 74.810611 Z M 88.398958,102.3562 l -7.984227,-3.992114 7.984227,-3.99212 z"
     id="path505"
     inkscape:connector-curvature="0" />
  <path
     style="fill:#7f7f7f;fill-opacity:1;fill-rule:nonzero;stroke:#7f7f7f;stroke-width:0.03992114px;stroke-linecap:butt;stroke-linejoin:round;stroke-miterlimit:4;stroke-dasharray:none;stroke-opacity:1"
     d="m 434.55514,74.810611 v 68.225229 h 90.78066 v -1.3174 h -90.10201 l 0.63874,0.63874 V 74.810611 Z m 89.46326,71.538679 7.98423,-3.99211 -7.98423,-3.99211 z"
     id="path507"
     inkscape:connector-curvature="0" />
  <text
     xml:space="preserve"
     style="font-style:italic;font-variant:normal;font-weight:400;font-size:18.6875px;line-height:125%;font-family:Arial;text-align:start;letter-spacing:0px;word-spacing:0px;text-anchor:start;fill:#000000;fill-opacity:1;stroke:none"
     x="446.71985"
     y="110.55324"
     id="text513"><tspan
       sodipodi:role="line"
       x="446.71985"
       y="110.55324"
       id="tspan511"><tspan
         dx="0"
         dy="0"
         style="font-style:italic;font-variant:normal;font-weight:400;font-size:18.6875px;font-family:Arial;fill:#7f7f7f"
         id="tspan509">a</tspan></tspan></text>
  <text
     xml:space="preserve"
     style="font-style:italic;font-variant:normal;font-weight:400;font-size:18.6875px;line-height:125%;font-family:Arial;text-align:start;letter-spacing:0px;word-spacing:0px;text-anchor:start;fill:#000000;fill-opacity:1;stroke:none"
     x="456.30093"
     y="110.55324"
     id="text519"><tspan
       sodipodi:role="line"
       x="456.30093"
       y="110.55324"
       id="tspan517"><tspan
         dx="0"
         dy="0"
         style="font-style:italic;font-variant:normal;font-weight:400;font-size:18.6875px;font-family:Arial;fill:#7f7f7f"
         id="tspan515">ction on </tspan></tspan></text>
  <text
     xml:space="preserve"
     style="font-style:italic;font-variant:normal;font-weight:400;font-size:18.6875px;line-height:125%;font-family:Arial;text-align:start;letter-spacing:0px;word-spacing:0px;text-anchor:start;fill:#000000;fill-opacity:1;stroke:none"
     x="458.21713"
     y="132.90907"
     id="text525"><tspan
       sodipodi:role="line"
       x="458.21713"
       y="132.90907"
       id="tspan523"><tspan
         dx="0"
         dy="0"
         style="font-style:italic;font-variant:normal;font-weight:400;font-size:18.6875px;font-family:Arial;fill:#7f7f7f"
         id="tspan521">owner</tspan></tspan></text>
  <path
     style="fill:#ed7d31;fill-opacity:1;fill-rule:evenodd;stroke:none"
     d="m 401.30083,40.877644 c 0,-18.762935 15.17003,-33.932967 33.93296,-33.932967 18.72302,0 33.93297,15.170032 33.93297,33.932967 0,18.723013 -15.20995,33.932967 -33.93297,33.932967 -18.76293,0 -33.93296,-15.209954 -33.93296,-33.932967 z m 2.67471,0 c 0,17.245931 13.9724,31.218329 31.25825,31.218329 17.24594,0 31.21833,-13.972398 31.21833,-31.218329 0,-17.285853 -13.97239,-31.258251 -31.21833,-31.258251 -17.28585,0 -31.25825,13.972398 -31.25825,31.258251 z"
     id="path527"
     inkscape:connector-curvature="0" />
  <path
     style="fill:none;stroke:#ed7d31;stroke-width:1.31739748px;stroke-linecap:butt;stroke-linejoin:miter;stroke-miterlimit:8;stroke-dasharray:none;stroke-opacity:1"
     d="m 401.30083,40.877644 c 0,-18.762935 15.17003,-33.932967 33.93296,-33.932967 18.72302,0 33.93297,15.170032 33.93297,33.932967 0,18.723013 -15.20995,33.932967 -33.93297,33.932967 -18.76293,0 -33.93296,-15.209954 -33.93296,-33.932967 z m 2.67471,0 c 0,17.245931 13.9724,31.218329 31.25825,31.218329 17.24594,0 31.21833,-13.972398 31.21833,-31.218329 0,-17.285853 -13.97239,-31.258251 -31.21833,-31.258251 -17.28585,0 -31.25825,13.972398 -31.25825,31.258251 z"
     id="path529"
     inkscape:connector-curvature="0" />
  <path
     style="fill:#ed7d31;fill-opacity:1;fill-rule:evenodd;stroke:none"
     d="m 436.55119,32.294599 7.62494,-11.058155 -0.7585,10.17989 8.66288,-1.676687 -3.43321,5.469195 8.98225,1.556925 -7.14588,4.471167 8.18383,5.389354 -9.74076,-0.67866 2.67472,9.860521 -8.46328,-6.946278 -1.55692,10.060127 -5.58896,-9.181862 -4.19172,12.734843 -1.55693,-11.377524 -6.06801,3.792508 1.87629,-7.02612 -11.3376,1.237555 7.34549,-5.389353 -7.62494,-6.028092 9.46131,-1.916215 -8.70281,-10.139969 14.21193,7.664859 2.11582,-7.664859 z"
     id="path531"
     inkscape:connector-curvature="0" />
  <text
     xml:space="preserve"
     style="font-style:italic;font-variant:normal;font-weight:400;font-size:18.6875px;line-height:125%;font-family:Arial;text-align:start;letter-spacing:0px;word-spacing:0px;text-anchor:start;fill:#000000;fill-opacity:1;stroke:none"
     x="516.27362"
     y="13.605011"
     id="text537"><tspan
       sodipodi:role="line"
       x="516.27362"
       y="13.605011"
       id="tspan535"><tspan
         dx="0"
         dy="0"
         style="font-style:italic;font-variant:normal;font-weight:400;font-size:18.6875px;font-family:Arial;fill:#7f7f7f"
         id="tspan533">f</tspan></tspan></text>
  <text
     xml:space="preserve"
     style="font-style:italic;font-variant:normal;font-weight:400;font-size:18.6875px;line-height:125%;font-family:Arial;text-align:start;letter-spacing:0px;word-spacing:0px;text-anchor:start;fill:#000000;fill-opacity:1;stroke:none"
     x="522.02228"
     y="13.605011"
     id="text543"><tspan
       sodipodi:role="line"
       x="522.02228"
       y="13.605011"
       id="tspan541"><tspan
         dx="0"
         dy="0"
         style="font-style:italic;font-variant:normal;font-weight:400;font-size:18.6875px;font-family:Arial;fill:#7f7f7f"
         id="tspan539">ile </tspan></tspan></text>
  <text
     xml:space="preserve"
     style="font-style:italic;font-variant:normal;font-weight:400;font-size:18.6875px;line-height:125%;font-family:Arial;text-align:start;letter-spacing:0px;word-spacing:0px;text-anchor:start;fill:#000000;fill-opacity:1;stroke:none"
     x="543.57971"
     y="13.605011"
     id="text549"><tspan
       sodipodi:role="line"
       x="543.57971"
       y="13.605011"
       id="tspan547"><tspan
         dx="0"
         dy="0"
         style="font-style:italic;font-variant:normal;font-weight:400;font-size:18.6875px;font-family:Arial;fill:#7f7f7f"
         id="tspan545">creation</tspan></tspan></text>
  <text
     xml:space="preserve"
     style="font-style:italic;font-variant:normal;font-weight:400;font-size:18.6875px;line-height:125%;font-family:Arial;text-align:start;letter-spacing:0px;word-spacing:0px;text-anchor:start;fill:#000000;fill-opacity:1;stroke:none"
     x="610.00848"
     y="13.605011"
     id="text555"><tspan
       sodipodi:role="line"
       x="614.00848"
       y="13.605011"
       id="tspan553"><tspan
         dx="0"
         dy="0"
         style="font-style:italic;font-variant:normal;font-weight:400;font-size:18.6875px;font-family:Arial;fill:#7f7f7f"
         id="tspan551">or modification</tspan></tspan></text>
  <path
     style="fill:#7f7f7f;fill-opacity:1;fill-rule:nonzero;stroke:#7f7f7f;stroke-width:0.03992114px;stroke-linecap:butt;stroke-linejoin:round;stroke-miterlimit:4;stroke-dasharray:none;stroke-opacity:1"
     d="m 508.68869,10.298053 -5.74865,0.638738 v 0 l -2.87432,0.35929 v 0 l -2.8344,0.399211 v 0 l -2.79448,0.479054 h 0.0399 l -2.79448,0.558896 h 0.0399 l -2.75455,0.638738 h 0.0399 l -2.67472,0.798423 0.0399,-0.03992 -2.67471,0.958107 0.0399,-0.03992 -2.67472,1.077871 h 0.0399 l -2.67471,1.197634 v 0 l -2.59488,1.237555 v 0 l -2.51503,1.317398 h 0.0399 l -2.39527,1.317397 v 0 l -2.19566,1.317398 v 0 l -0.99803,0.638738 v 0 l -0.99803,0.598817 v 0 l -0.87826,0.598817 0.0399,-0.03992 -0.83834,0.598817 v 0 l -0.71858,0.598817 0.0399,-0.03992 -0.67866,0.598817 v -0.03992 l -1.23756,1.157713 0.0399,-0.03992 -1.517,1.556924 -0.95811,-0.918186 1.51701,-1.556925 1.27747,-1.157713 0.67866,-0.598817 0.7585,-0.598817 0.83835,-0.638738 0.91818,-0.598817 0.99803,-0.638738 1.03795,-0.638738 2.23558,-1.317398 2.39527,-1.317397 2.51503,-1.317398 2.6348,-1.277476 2.67472,-1.197634 2.71463,-1.117792 2.71464,-0.918186 2.67472,-0.798423 2.75456,-0.678659 2.79447,-0.558896 2.83441,-0.479054 2.87432,-0.399211 2.87432,-0.359291 5.78856,-0.638738 z m -44.35239,19.800884 -8.46328,2.874322 2.75456,-8.463281 z"
     id="path557"
     inkscape:connector-curvature="0" />
  <path
     style="fill:none;stroke:#7f7f7f;stroke-width:2.67471623px;stroke-linecap:butt;stroke-linejoin:miter;stroke-miterlimit:8;stroke-dasharray:none;stroke-opacity:1"
     d="m 532.04255,111.09893 c 0,-8.66289 7.02612,-15.689014 15.68901,-15.689014 h 115.65153 c 8.66289,0 15.68901,7.026124 15.68901,15.689014 v 62.79595 c 0,8.66288 -7.02612,15.689 -15.68901,15.689 H 547.73156 c -8.66289,0 -15.68901,-7.02612 -15.68901,-15.689 z"
     id="path559"
     inkscape:connector-curvature="0" />
  <text
     xml:space="preserve"
     style="font-style:normal;font-variant:normal;font-weight:400;font-size:23.9375px;line-height:125%;font-family:Arial;text-align:start;letter-spacing:0px;word-spacing:0px;text-anchor:start;fill:#000000;fill-opacity:1;stroke:none"
     x="549.99146"
     y="159.51697"
     id="text565"><tspan
       sodipodi:role="line"
       x="549.99146"
       y="159.51697"
       id="tspan563"><tspan
         dx="0"
         dy="0"
         style="font-style:normal;font-variant:normal;font-weight:400;font-size:23.9375px;font-family:Arial;fill:#7f7f7f"
         id="tspan561">mySystem</tspan></tspan></text>
  <text
     xml:space="preserve"
     style="font-style:italic;font-variant:normal;font-weight:400;font-size:14.6875px;line-height:125%;font-family:Arial;text-align:start;letter-spacing:0px;word-spacing:0px;text-anchor:start;fill:#000000;fill-opacity:1;stroke:none"
     x="549.99146"
     y="179.63722"
     id="text571"><tspan
       sodipodi:role="line"
       x="549.99146"
       y="179.63722"
       id="tspan569"><tspan
         dx="0"
         dy="0"
         style="font-style:italic;font-variant:normal;font-weight:400;font-size:14.6875px;font-family:Arial;fill:#7f7f7f"
         id="tspan567">c</tspan></tspan></text>
  <text
     xml:space="preserve"
     style="font-style:italic;font-variant:normal;font-weight:400;font-size:14.6875px;line-height:125%;font-family:Arial;text-align:start;letter-spacing:0px;word-spacing:0px;text-anchor:start;fill:#000000;fill-opacity:1;stroke:none"
     x="556.05951"
     y="179.63722"
     id="text577"><tspan
       sodipodi:role="line"
       x="556.05951"
       y="179.63722"
       id="tspan575"><tspan
         dx="0"
         dy="0"
         style="font-style:italic;font-variant:normal;font-weight:400;font-size:14.6875px;font-family:Arial;fill:#7f7f7f"
         id="tspan573">lass: </tspan></tspan></text>
  <text
     xml:space="preserve"
     style="font-style:italic;font-variant:normal;font-weight:400;font-size:14.6875px;line-height:125%;font-family:Arial;text-align:start;letter-spacing:0px;word-spacing:0px;text-anchor:start;fill:#000000;fill-opacity:1;stroke:none"
     x="585.60114"
     y="179.63722"
     id="text583"><tspan
       sodipodi:role="line"
       x="585.60114"
       y="179.63722"
       id="tspan581"><tspan
         dx="0"
         dy="0"
         style="font-style:italic;font-variant:normal;font-weight:400;font-size:14.6875px;font-family:Arial;fill:#7f7f7f"
         id="tspan579">System</tspan></tspan></text>
  <text
     xml:space="preserve"
     style="font-style:normal;font-variant:normal;font-weight:400;font-size:23.9375px;line-height:125%;font-family:Arial;text-align:start;letter-spacing:0px;word-spacing:0px;text-anchor:start;fill:#000000;fill-opacity:1;stroke:none"
     x="285.07333"
     y="24.655203"
     id="text589"><tspan
       sodipodi:role="line"
       x="285.07333"
       y="24.655203"
       id="tspan587"><tspan
         dx="0"
         dy="0"
         style="font-style:normal;font-variant:normal;font-weight:400;font-size:23.9375px;font-family:Arial;fill:#ed7d31"
         id="tspan585">myTrigger</tspan></tspan></text>
  <text
     xml:space="preserve"
     style="font-style:italic;font-variant:normal;font-weight:400;font-size:14.6875px;line-height:125%;font-family:Arial;text-align:start;letter-spacing:0px;word-spacing:0px;text-anchor:start;fill:#000000;fill-opacity:1;stroke:none"
     x="285.07333"
     y="44.775452"
     id="text595"><tspan
       sodipodi:role="line"
       x="285.07333"
       y="44.775452"
       id="tspan593"><tspan
         dx="0"
         dy="0"
         style="font-style:italic;font-variant:normal;font-weight:400;font-size:14.6875px;font-family:Arial;fill:#ed7d31"
         id="tspan591">c</tspan></tspan></text>
  <text
     xml:space="preserve"
     style="font-style:italic;font-variant:normal;font-weight:400;font-size:14.6875px;line-height:125%;font-family:Arial;text-align:start;letter-spacing:0px;word-spacing:0px;text-anchor:start;fill:#000000;fill-opacity:1;stroke:none"
     x="291.14133"
     y="44.775452"
     id="text601"><tspan
       sodipodi:role="line"
       x="291.14133"
       y="44.775452"
       id="tspan599"><tspan
         dx="0"
         dy="0"
         style="font-style:italic;font-variant:normal;font-weight:400;font-size:14.6875px;font-family:Arial;fill:#ed7d31"
         id="tspan597">lass: </tspan></tspan></text>
  <text
     xml:space="preserve"
     style="font-style:italic;font-variant:normal;font-weight:400;font-size:14.6875px;line-height:125%;font-family:Arial;text-align:start;letter-spacing:0px;word-spacing:0px;text-anchor:start;fill:#000000;fill-opacity:1;stroke:none"
     x="320.68298"
     y="44.775452"
     id="text607"><tspan
       sodipodi:role="line"
       x="320.68298"
       y="44.775452"
       id="tspan605"><tspan
         dx="0"
         dy="0"
         style="font-style:italic;font-variant:normal;font-weight:400;font-size:14.6875px;font-family:Arial;fill:#ed7d31"
         id="tspan603">Trigger</tspan></tspan></text>
  <text
     xml:space="preserve"
     style="font-style:italic;font-variant:normal;font-weight:400;font-size:14.6875px;line-height:125%;font-family:Arial;text-align:start;letter-spacing:0px;word-spacing:0px;text-anchor:start;fill:#000000;fill-opacity:1;stroke:none"
     x="285.07333"
     y="62.340752"
     id="text613"><tspan
       sodipodi:role="line"
       x="285.07333"
       y="62.340752"
       id="tspan611"><tspan
         dx="0"
         dy="0"
         style="font-style:italic;font-variant:normal;font-weight:400;font-size:14.6875px;font-family:Arial;fill:#ed7d31"
         id="tspan609">o</tspan></tspan></text>
  <text
     xml:space="preserve"
     style="font-style:italic;font-variant:normal;font-weight:400;font-size:14.6875px;line-height:125%;font-family:Arial;text-align:start;letter-spacing:0px;word-spacing:0px;text-anchor:start;fill:#000000;fill-opacity:1;stroke:none"
     x="292.57849"
     y="62.340752"
     id="text619"><tspan
       sodipodi:role="line"
       x="292.57849"
       y="62.340752"
       id="tspan617"><tspan
         dx="0"
         dy="0"
         style="font-style:italic;font-variant:normal;font-weight:400;font-size:14.6875px;font-family:Arial;fill:#ed7d31"
         id="tspan615">wner</tspan></tspan></text>
  <text
     xml:space="preserve"
     style="font-style:italic;font-variant:normal;font-weight:400;font-size:14.6875px;line-height:125%;font-family:Arial;text-align:start;letter-spacing:0px;word-spacing:0px;text-anchor:start;fill:#000000;fill-opacity:1;stroke:none"
     x="322.75888"
     y="62.340752"
     id="text625"><tspan
       sodipodi:role="line"
       x="322.75888"
       y="62.340752"
       id="tspan623"><tspan
         dx="0"
         dy="0"
         style="font-style:italic;font-variant:normal;font-weight:400;font-size:14.6875px;font-family:Arial;fill:#ed7d31"
         id="tspan621">: </tspan></tspan></text>
  <text
     xml:space="preserve"
     style="font-style:italic;font-variant:normal;font-weight:400;font-size:14.6875px;line-height:125%;font-family:Arial;text-align:start;letter-spacing:0px;word-spacing:0px;text-anchor:start;fill:#000000;fill-opacity:1;stroke:none"
     x="329.785"
     y="62.340752"
     id="text631"><tspan
       sodipodi:role="line"
       x="329.785"
       y="62.340752"
       id="tspan629"><tspan
         dx="0"
         dy="0"
         style="font-style:italic;font-variant:normal;font-weight:400;font-size:14.6875px;font-family:Arial;fill:#ed7d31"
         id="tspan627">mySystem</tspan></tspan></text>
</svg>
